<?xml version="1.0" encoding="UTF-8"?>
<svg width="37px" height="28px" viewBox="0 0 37 28" version="1.1" xmlns="http://www.w3.org/2000/svg" xmlns:xlink="http://www.w3.org/1999/xlink">
    <!-- Generator: Sketch 51.2 (57519) - http://www.bohemiancoding.com/sketch -->
    <title>cc</title>
    <desc>Created with Sketch.</desc>
    <defs></defs>
    <g id="Page-1" stroke="none" stroke-width="1" fill="none" fill-rule="evenodd">
        <g id="cc" transform="translate(1.000000, 1.000000)">
            <path d="M2.5,0.5 L32.5,0.5 C33.6045695,0.5 34.5,1.3954305 34.5,2.5 L34.5,23.5 C34.5,24.6045695 33.6045695,25.5 32.5,25.5 L2.5,25.5 C1.3954305,25.5 0.5,24.6045695 0.5,23.5 L0.5,2.5 C0.5,1.3954305 1.3954305,0.5 2.5,0.5 Z" id="Shape" stroke="#FFFFFF" stroke-width="2"></path>
            <g id="Group" transform="translate(5.000000, 6.000000)" fill-rule="nonzero">
                <g id="a-link" fill="#000000">
                    <path d="M7.02,13.216 C3.402,13.216 0.612,10.696 0.612,7.006 C0.612,3.298 3.402,0.796 7.02,0.796 C9.648,0.796 11.178,2.218 12.024,3.73 L9.828,4.81 C9.324,3.838 8.244,3.064 7.02,3.064 C4.824,3.064 3.24,4.738 3.24,7.006 C3.24,9.274 4.824,10.948 7.02,10.948 C8.244,10.948 9.324,10.174 9.828,9.202 L12.024,10.264 C11.178,11.758 9.648,13.216 7.02,13.216 Z M19.386,13.216 C15.768,13.216 12.978,10.696 12.978,7.006 C12.978,3.298 15.768,0.796 19.386,0.796 C22.014,0.796 23.544,2.218 24.39,3.73 L22.194,4.81 C21.69,3.838 20.61,3.064 19.386,3.064 C17.19,3.064 15.606,4.738 15.606,7.006 C15.606,9.274 17.19,10.948 19.386,10.948 C20.61,10.948 21.69,10.174 22.194,9.202 L24.39,10.264 C23.544,11.758 22.014,13.216 19.386,13.216 Z" id="a"></path>
                </g>
                <g id="a-link" fill="#FFFFFF">
                    <path d="M7.02,13.216 C3.402,13.216 0.612,10.696 0.612,7.006 C0.612,3.298 3.402,0.796 7.02,0.796 C9.648,0.796 11.178,2.218 12.024,3.73 L9.828,4.81 C9.324,3.838 8.244,3.064 7.02,3.064 C4.824,3.064 3.24,4.738 3.24,7.006 C3.24,9.274 4.824,10.948 7.02,10.948 C8.244,10.948 9.324,10.174 9.828,9.202 L12.024,10.264 C11.178,11.758 9.648,13.216 7.02,13.216 Z M19.386,13.216 C15.768,13.216 12.978,10.696 12.978,7.006 C12.978,3.298 15.768,0.796 19.386,0.796 C22.014,0.796 23.544,2.218 24.39,3.73 L22.194,4.81 C21.69,3.838 20.61,3.064 19.386,3.064 C17.19,3.064 15.606,4.738 15.606,7.006 C15.606,9.274 17.19,10.948 19.386,10.948 C20.61,10.948 21.69,10.174 22.194,9.202 L24.39,10.264 C23.544,11.758 22.014,13.216 19.386,13.216 Z" id="a"></path>
                </g>
            </g>
        </g>
    </g>
</svg>