<?xml version="1.0" encoding="UTF-8"?>
<svg width="34px" height="34px" viewBox="0 0 34 34" version="1.1" xmlns="http://www.w3.org/2000/svg" xmlns:xlink="http://www.w3.org/1999/xlink">
    <!-- Generator: Sketch 51.2 (57519) - http://www.bohemiancoding.com/sketch -->
    <title>asa-arrow</title>
    <desc>Created with Sketch.</desc>
    <defs></defs>
    <g id="Symbols" stroke="none" stroke-width="1" fill="none" fill-rule="evenodd">
        <g id="asa-logo" transform="translate(-18.000000, -18.000000)" fill="#1EFF71">
            <g id="arrow" transform="translate(18.000000, 18.000000)">
                <g id="asa-arrow">
                    <path d="M16.9991016,26.6459156 C21.0776376,26.6459156 25.0446086,27.4148413 28.7910142,28.9317047 C28.8230731,28.9450607 28.8378202,28.9456967 28.8378202,28.9456967 C28.8564144,28.9387007 28.9000145,28.8916366 28.9051439,28.8655605 C28.9051439,28.8700125 28.9006557,28.8522045 28.8871909,28.8261284 L17.0606547,5.07910735 C17.0523194,5.06257132 17.04719,5.0536673 16.9991016,5.0536673 C16.9510132,5.0536673 16.946525,5.06257132 16.9298543,5.09627939 L5.11998876,28.8095924 C5.09818869,28.8522045 5.09370044,28.8687405 5.09305926,28.8719205 C5.09818869,28.8910006 5.13794175,28.9342487 5.16423007,28.9456967 C5.17192421,28.9444247 5.18603014,28.9406087 5.20718902,28.9317047 C8.95359461,27.4148413 12.9205656,26.6459156 16.9991016,26.6459156 M5.16102418,34 C3.39265406,34 1.70891949,33.0574459 0.765746015,31.5393105 C-0.176786282,30.0218111 -0.253727694,28.1576909 0.559927738,26.5536954 L12.3697933,2.84101835 C13.2623137,1.08183842 15.0332485,0 16.9991016,0 C18.9655958,0 20.7358895,1.08183842 21.6200746,2.82384631 L33.4466108,26.5708674 C34.2525721,28.1583269 34.1756306,30.0218111 33.2324572,31.5393105 C32.2899249,33.0574459 30.6055491,34 28.8378202,34 L28.837179,34 C28.1658652,34 27.5028867,33.8689837 26.8655553,33.6114031 C23.7333987,32.3432163 20.4140179,31.7002189 16.9991016,31.7002189 C13.5841853,31.7002189 10.2648045,32.3432163 7.13328904,33.6114031 C6.49595768,33.8689837 5.832338,34 5.16102418,34" id="Fill-1"></path>
                </g>
            </g>
        </g>
    </g>
</svg>